
Intro: 3 mesures
    Em                              D                               G                F#m             Em
D|- 5 - 5 - 5 - 5 - 5 - 5 - 5 - 5 - 4 - 4 - 4 - 4 - 4 - 4 - 4 - 4 - 9 -- 9-- 9-- 9 --7 - 7 - 7 - 7 - 5 - 5 - 5 - 5 - 5 - 5 - 5 - 5 -|
A|- 7 - 7 - 7 - 7 - 7 - 7 - 7 - 7 - 5 - 5 - 5 - 5 - 5 - 5 - 5 - 5 - 10 - 10 -10 -10 -9 - 9 - 9 - 9 - 7 - 7 - 7 - 7 - 7 - 7 - 7 - 7 -|
E|---------------------------------------------------------------------
    !       |       |       |       !       |       |       |       !        |       |       |       !       |       |       |
            So      if      you’re  lo_____nly                              you     know    I’m      he_______re     waitin for you
            I’m     just    a      cross___hair                              I’m    just    a        sho______t      away    fron you
            And     if      you     leave  here                             You    leave   me       broken  shattered alive
            I’m     just    a      cross___hair                              I’m    just    a        sho______t      then we can die
                                    Ou________h     ou_______h      ou
                                    I               know            I        won’t   be     leaving  here            with     you
